<svg xmlns="http://www.w3.org/2000/svg">
  <path fillRule="evenodd"  fill="rgb(0, 0, 0)"
        d="M10.895,10.500 L10.979,10.592 L10.677,10.739 L1.307,21.014 L0.502,20.621 L9.732,10.500 L0.502,0.378 L1.307,-0.014 L10.677,10.261 L10.979,10.408 L10.895,10.500 Z"/>
</svg>
