<svg xmlns="http://www.w3.org/2000/svg">
  <path fillRule="evenodd"  fill="rgb(255, 255, 255)"
    d="M0.004,0.572 L7.974,8.546 L0.065,16.460 L0.608,17.004 L8.517,9.090 L16.426,17.004 L17.001,16.430 L9.092,8.516 L17.001,0.602 L16.457,0.058 L8.548,7.972 L0.578,-0.002 L0.004,0.572 Z"/>
</svg>
