<svg xmlns="http://www.w3.org/2000/svg">
  <path fillRule="evenodd"  fill="rgb(191, 19, 52)"
        d="M5.500,-0.000 C8.538,-0.000 11.000,2.462 11.000,5.500 C11.000,8.538 8.538,11.000 5.500,11.000 C2.462,11.000 -0.000,8.538 -0.000,5.500 C-0.000,2.462 2.462,-0.000 5.500,-0.000 Z"/>
</svg>
